{
 "files": [
  {
   "name": ".",
   "ftype": "dir",
   "chksum_type": null,
   "chksum_sha256": null,
   "format": 1
  },
  {
   "name": "dbbc",
   "ftype": "dir",
   "chksum_type": null,
   "chksum_sha256": null,
   "format": 1
  },
  {
   "name": "dbbc/testing",
   "ftype": "dir",
   "chksum_type": null,
   "chksum_sha256": null,
   "format": 1
  },
  {
   "name": "dbbc/testing/mock_capture.py",
   "ftype": "file",
   "chksum_type": "sha256",
   "chksum_sha256": "3ba6d7f927757158c24a0317a810cd57df40423d5878ecc3f15cd331f17fe1b5",
   "format": 1
  },
  {
   "name": "dbbc/testing/__init__.py",
   "ftype": "file",
   "chksum_type": "sha256",
   "chksum_sha256": "d7623c3857125ad7a612a50cbe5e2c2cdf11e26f96277bf87232a9de25216251",
   "format": 1
  },
  {
   "name": "dbbc/testing/vdif.py",
   "ftype": "file",
   "chksum_type": "sha256",
   "chksum_sha256": "ebd14c68c6a1dd52a433e7ff199bf8ba13d6a62f6ef35c6548760a70b4ba9192",
   "format": 1
  },
  {
   "name": "dbbc/pipelines",
   "ftype": "dir",
   "chksum_type": null,
   "chksum_sha256": null,
   "format": 1
  },
  {
   "name": "dbbc/pipelines/ddc_plotter.py",
   "ftype": "file",
   "chksum_type": "sha256",
   "chksum_sha256": "9601c1dba3504c4bd083a1d059d3286b6bcc8d9016c25ca667ab8cc6757a5933",
   "format": 1
  },
  {
   "name": "dbbc/pipelines/__init__.py",
   "ftype": "file",
   "chksum_type": "sha256",
   "chksum_sha256": "1fa5d24b4b76227240c2567a52a71429be6eab195e317a0805eb67e7b41c75b2",
   "format": 1
  },
  {
   "name": "dbbc/pipelines/ddc_subscriber.py",
   "ftype": "file",
   "chksum_type": "sha256",
   "chksum_sha256": "a466a50baec2eacb0e2288b13ce641ed23ba0aa8562d91e89158848ad9ab919a",
   "format": 1
  },
  {
   "name": "dbbc/pipelines/vdif_packer.py",
   "ftype": "file",
   "chksum_type": "sha256",
   "chksum_sha256": "af54877f316ec05783e08fbbca78da88684064a672385144fe014e46c9b17842",
   "format": 1
  },
  {
   "name": "dbbc/pipelines/ddc_processor.py",
   "ftype": "file",
   "chksum_type": "sha256",
   "chksum_sha256": "367f34febe10bae64484c5c51611e1a42184bacc7059780eec563c121076b901",
   "format": 1
  },
  {
   "name": "dbbc/ddc.py",
   "ftype": "file",
   "chksum_type": "sha256",
   "chksum_sha256": "edbc5c986921f333367cfc9ebf7b7f26079d90e4c5d44c9cda50d4dcbadf598c",
   "format": 1
  },
  {
   "name": "dbbc/provision_tests",
   "ftype": "dir",
   "chksum_type": null,
   "chksum_sha256": null,
   "format": 1
  },
  {
   "name": "dbbc/provision_tests/vdif_packer_tests.py",
   "ftype": "file",
   "chksum_type": "sha256",
   "chksum_sha256": "cae2ecf211e33a338365d955c345a876163d5d67c873965eda346b1cec762d8d",
   "format": 1
  },
  {
   "name": "dbbc/provision_tests/__init__.py",
   "ftype": "file",
   "chksum_type": "sha256",
   "chksum_sha256": "6ac14199c9476e9dd5a3f71d520767c52ce622adb40afb0c9a9822d8bd39b74a",
   "format": 1
  },
  {
   "name": "dbbc/provision_tests/ddc_processor_tests.py",
   "ftype": "file",
   "chksum_type": "sha256",
   "chksum_sha256": "98896feb9d8542081c2ea349eb3bd4b988595b0c34b5b8e34468eb141ca64750",
   "format": 1
  },
  {
   "name": "dbbc/provision_tests/ddc_plotter_tests.py",
   "ftype": "file",
   "chksum_type": "sha256",
   "chksum_sha256": "177feeac3e3ae1e7cafb1c63382ee66d911cb55439fc69289788ddbf8a0961df",
   "format": 1
  },
  {
   "name": "dbbc/vdif.py",
   "ftype": "file",
   "chksum_type": "sha256",
   "chksum_sha256": "85c18383d0633a40d902c791e102eee8012d731bf663cf54940f4c4b47cbc195",
   "format": 1
  },
  {
   "name": "dbbc/__init__.py",
   "ftype": "file",
   "chksum_type": "sha256",
   "chksum_sha256": "cec73c4f94eeb28961a6e9eabf0548aafcfb687826ca2bb9d33588346ffe3902",
   "format": 1
  },
  {
   "name": "dbbc/data_streams",
   "ftype": "dir",
   "chksum_type": null,
   "chksum_sha256": null,
   "format": 1
  },
  {
   "name": "dbbc/data_streams/vdif_stream.py",
   "ftype": "file",
   "chksum_type": "sha256",
   "chksum_sha256": "3f57d97df153a5e4430b5a60d12bb24263d0e4420cc3e2f06636eb0c6150a987",
   "format": 1
  },
  {
   "name": "dbbc/data_streams/converter.py",
   "ftype": "file",
   "chksum_type": "sha256",
   "chksum_sha256": "174d2483dcf7b23b3d0ef19de2c254cf2a327df795d1cf540ed5feeecce38001",
   "format": 1
  },
  {
   "name": "dbbc/data_streams/ddc_stream.py",
   "ftype": "file",
   "chksum_type": "sha256",
   "chksum_sha256": "9586bdffb2819b2664eadb49b6dbb26f236c36dbbd9c7ed7c7d8a18901f80847",
   "format": 1
  },
  {
   "name": "dbbc/data_streams/__init__.py",
   "ftype": "file",
   "chksum_type": "sha256",
   "chksum_sha256": "16daa865270c57a513c7aefbe8884b6d5b158b43f0cb0aa1d80454b85335a922",
   "format": 1
  },
  {
   "name": ".gitignore",
   "ftype": "file",
   "chksum_type": "sha256",
   "chksum_sha256": "270b2a9a7f9040bc4d86b7b87e999c9a6286079f235183452792441d6ce825fb",
   "format": 1
  },
  {
   "name": "tests",
   "ftype": "dir",
   "chksum_type": null,
   "chksum_sha256": null,
   "format": 1
  },
  {
   "name": "tests/test_vdif_util.py",
   "ftype": "file",
   "chksum_type": "sha256",
   "chksum_sha256": "1448612292002ccaf1d1cc9f0790d55e27dc3060e6244053ae7ca62e0d986148",
   "format": 1
  },
  {
   "name": "tests/integration_tests",
   "ftype": "dir",
   "chksum_type": null,
   "chksum_sha256": null,
   "format": 1
  },
  {
   "name": "tests/integration_tests/test_ddc_streaming.py",
   "ftype": "file",
   "chksum_type": "sha256",
   "chksum_sha256": "a2af4d48d4de45e76dafcbd632d3a2e156e099d912f40b0638cbe15db2b83c03",
   "format": 1
  },
  {
   "name": "tests/integration_tests/test_vdif_packer.py",
   "ftype": "file",
   "chksum_type": "sha256",
   "chksum_sha256": "a9cad2da1df76514ab4a53549aebf6e8322a4643ba217d3770635db34ace0cd9",
   "format": 1
  },
  {
   "name": "tests/test_streaming_pipelines.py",
   "ftype": "file",
   "chksum_type": "sha256",
   "chksum_sha256": "80f7ce624e62afe2eaf075187cfc6c194425ff8130e038c1c1f315cb61200c9e",
   "format": 1
  },
  {
   "name": "tests/test_measuring_pipelines.py",
   "ftype": "file",
   "chksum_type": "sha256",
   "chksum_sha256": "b6c16daf04ed8fb68c6ee550d729aaf31e6b8bbbc6c15e15d97d8006b9c47680",
   "format": 1
  },
  {
   "name": "tests/test_converter.py",
   "ftype": "file",
   "chksum_type": "sha256",
   "chksum_sha256": "f38a7ba71b4ee7d61039a3d18954f3e93f37a072b20d1884f716360c66529b95",
   "format": 1
  },
  {
   "name": "tests/__init__.py",
   "ftype": "file",
   "chksum_type": "sha256",
   "chksum_sha256": "e3b0c44298fc1c149afbf4c8996fb92427ae41e4649b934ca495991b7852b855",
   "format": 1
  },
  {
   "name": "tests/test_pipeline_states.py",
   "ftype": "file",
   "chksum_type": "sha256",
   "chksum_sha256": "48768b84ab85491bfade5baf8b17431db2e6d83748e804794a3ff8ef8c228210",
   "format": 1
  },
  {
   "name": "tests/test_ddc.py",
   "ftype": "file",
   "chksum_type": "sha256",
   "chksum_sha256": "e2963ba993cf3d5c8136222e5c8a07cdb19a00ce6fd569e105109e740f06a869",
   "format": 1
  },
  {
   "name": "tests/test_data_streams.py",
   "ftype": "file",
   "chksum_type": "sha256",
   "chksum_sha256": "f4a87689f12e38887b1134269871fc80a6dd1f3b751f8c1351ef62ea21d118ca",
   "format": 1
  },
  {
   "name": ".gitlab-ci.yml",
   "ftype": "file",
   "chksum_type": "sha256",
   "chksum_sha256": "062d1622fcc1499a025465a2c8870349340943b43b88d24d19fa493e3485a348",
   "format": 1
  },
  {
   "name": "notebooks",
   "ftype": "dir",
   "chksum_type": null,
   "chksum_sha256": null,
   "format": 1
  },
  {
   "name": "notebooks/software_design.ipynb",
   "ftype": "file",
   "chksum_type": "sha256",
   "chksum_sha256": "c990744ff632d1b61191a544eb69dbc392b76759f48360e70c47a2715ef691d6",
   "format": 1
  },
  {
   "name": "notebooks/dbbc.ipynb",
   "ftype": "file",
   "chksum_type": "sha256",
   "chksum_sha256": "ddb46665632b009523ef583383544682d8d1324e21f99eadca84795687132ff6",
   "format": 1
  },
  {
   "name": "notebooks/img",
   "ftype": "dir",
   "chksum_type": null,
   "chksum_sha256": null,
   "format": 1
  },
  {
   "name": "notebooks/img/cartoon_hbp.png",
   "ftype": "file",
   "chksum_type": "sha256",
   "chksum_sha256": "687ca7ed2074912fbc6fc27d3a7d9692666fa7a7b39241381eccd2339afa9f10",
   "format": 1
  },
  {
   "name": "notebooks/img/testbench.png",
   "ftype": "file",
   "chksum_type": "sha256",
   "chksum_sha256": "1987188d47e30081dd0836d6bcb323c7e4182765a394544383680a036c5affb3",
   "format": 1
  },
  {
   "name": "notebooks/img/resampled_simpled.png",
   "ftype": "file",
   "chksum_type": "sha256",
   "chksum_sha256": "db5f63a2e563954b6f637f586968d8739e15f853fa00e689a774194a05bafe12",
   "format": 1
  },
  {
   "name": "notebooks/img/cartoon_adc.png",
   "ftype": "file",
   "chksum_type": "sha256",
   "chksum_sha256": "ac9006232333aada2196842ed63662795cdf2b532ed03bb5fd5fd2d986685cca",
   "format": 1
  },
  {
   "name": "notebooks/img/upsampled.png",
   "ftype": "file",
   "chksum_type": "sha256",
   "chksum_sha256": "5bab7fd4becd8efe24fe35bd97f8c93428cb3fa2c59efa57ebe43d25a9a8ef18",
   "format": 1
  },
  {
   "name": "notebooks/img/cartoon_mixer.png",
   "ftype": "file",
   "chksum_type": "sha256",
   "chksum_sha256": "15bf9384c8e9e0f5b3b665448cc0111b1f54092a2c8da89c57aa49e3bf5808da",
   "format": 1
  },
  {
   "name": "notebooks/img/dbbc_output.png",
   "ftype": "file",
   "chksum_type": "sha256",
   "chksum_sha256": "cea0c8417b44bd5a6b980f5297d6022fca18de4db478a6555e1c7fc4421b3e6a",
   "format": 1
  },
  {
   "name": "notebooks/img/input_v_mixed.png",
   "ftype": "file",
   "chksum_type": "sha256",
   "chksum_sha256": "f6c7570935d8af155afe98bf5b0244c00a28672ccf9ebb6d40dbe7163e521297",
   "format": 1
  },
  {
   "name": "notebooks/img/resampled_poly.png",
   "ftype": "file",
   "chksum_type": "sha256",
   "chksum_sha256": "4f26b44f47887f296944e862f031bb75d9d75f243bdbc9c87d456208386a3c7c",
   "format": 1
  },
  {
   "name": "notebooks/img/cartoon_resample.png",
   "ftype": "file",
   "chksum_type": "sha256",
   "chksum_sha256": "1598e7ea3f070e1e32c2e3313f3a9eecf64b5fb0389f9522022e9d50590e97c4",
   "format": 1
  },
  {
   "name": "notebooks/img/cartoon_afe.png",
   "ftype": "file",
   "chksum_type": "sha256",
   "chksum_sha256": "6920eeda0935bef0ff52b66bdfadfceb51eb7c1fcf37352dc8bf0e5e2e768d31",
   "format": 1
  },
  {
   "name": "notebooks/img/dbbc_ddc.png",
   "ftype": "file",
   "chksum_type": "sha256",
   "chksum_sha256": "8d0238ce0a0e9e3cf962f47123351040126ff9564a17c6759e26e6c72964b866",
   "format": 1
  },
  {
   "name": "notebooks/img/ddc_processing_block.png",
   "ftype": "file",
   "chksum_type": "sha256",
   "chksum_sha256": "219404ce7e11362653b0a76b3a816f9e05f4bdff74733b301c52ac918414429e",
   "format": 1
  },
  {
   "name": "notebooks/img/origin_signal.png",
   "ftype": "file",
   "chksum_type": "sha256",
   "chksum_sha256": "fbc3d127917d642412fcc5f2e1ad5e2aed31c18e7288d1dd91e4e0a4027e7e84",
   "format": 1
  },
  {
   "name": "notebooks/ddc_gpu_example.py",
   "ftype": "file",
   "chksum_type": "sha256",
   "chksum_sha256": "f1b3448de6d430a41f2233a6eb9a64d36482e27af0c68afcef4dcaaf8bc39917",
   "format": 1
  },
  {
   "name": "notebooks/notebook2pdf.py",
   "ftype": "file",
   "chksum_type": "sha256",
   "chksum_sha256": "67d465800f52d9cc20fadf6fd2cebd2894eed9b1f07c907311adfdb466618d55",
   "format": 1
  },
  {
   "name": ".gitattributes",
   "ftype": "file",
   "chksum_type": "sha256",
   "chksum_sha256": "927336d37a3c9c73ca22056056b97fc1cfc1a3cb0d07133451278a4493965677",
   "format": 1
  },
  {
   "name": "doc",
   "ftype": "dir",
   "chksum_type": null,
   "chksum_sha256": null,
   "format": 1
  },
  {
   "name": "doc/software_design.pdf",
   "ftype": "file",
   "chksum_type": "sha256",
   "chksum_sha256": "f4a51d7c1a62647a9651deffc15c80be973178036fcb76bbef4437b8a111b67a",
   "format": 1
  },
  {
   "name": "doc/conf.py",
   "ftype": "file",
   "chksum_type": "sha256",
   "chksum_sha256": "69604e919bd201cc7e72602a4e600b12f426de1398811febbda388a5646a0a62",
   "format": 1
  },
  {
   "name": "doc/Makefile",
   "ftype": "file",
   "chksum_type": "sha256",
   "chksum_sha256": "8b6587b859607f200f116e2cb043fc358e1c3a26c326b563bf348453cfc68307",
   "format": 1
  },
  {
   "name": "doc/dbbc.pdf",
   "ftype": "file",
   "chksum_type": "sha256",
   "chksum_sha256": "bebbe4dae3ea4b27e3c94eb34d9f5a628c8d40a34905fd87f1b740dd197fbce5",
   "format": 1
  },
  {
   "name": "doc/index.rst",
   "ftype": "file",
   "chksum_type": "sha256",
   "chksum_sha256": "92c47d03974832da43c03a8a752a2dccb48e6947939e0519a4a1d36c4ece1534",
   "format": 1
  },
  {
   "name": ".coveragerc",
   "ftype": "file",
   "chksum_type": "sha256",
   "chksum_sha256": "74affe7c82db95d9fec62f3406efb49f4b13f53db3201e5aec1f4770b974ce37",
   "format": 1
  },
  {
   "name": "requirements.yml",
   "ftype": "file",
   "chksum_type": "sha256",
   "chksum_sha256": "209393267a4ee98e8e4c6cb645345186d364cc0d9df3742fe73299c93cedf38c",
   "format": 1
  },
  {
   "name": "scripts",
   "ftype": "dir",
   "chksum_type": null,
   "chksum_sha256": null,
   "format": 1
  },
  {
   "name": "scripts/plot_vdif_correlation.py",
   "ftype": "file",
   "chksum_type": "sha256",
   "chksum_sha256": "17ee58837b3b88b116cbabbb03b460fc32ce469b01d1552ebe2e395599156f44",
   "format": 1
  },
  {
   "name": "scripts/unpack_vdif2file.py",
   "ftype": "file",
   "chksum_type": "sha256",
   "chksum_sha256": "818814402faad007f8b05ea117ca8346727d49e14d2b7c47ec12a10f70ffe70e",
   "format": 1
  },
  {
   "name": "scripts/print_vdif_header.py",
   "ftype": "file",
   "chksum_type": "sha256",
   "chksum_sha256": "1e64a9eee50721010327e815da472c3b5a032cf103a3c0ed1b610ce1737da812",
   "format": 1
  },
  {
   "name": "scripts/quicklook.py",
   "ftype": "file",
   "chksum_type": "sha256",
   "chksum_sha256": "63a93ac0c3c9024cee0597989b3298c7f4932660e80f5a343e5acc87f6889e00",
   "format": 1
  },
  {
   "name": "run_tests.sh",
   "ftype": "file",
   "chksum_type": "sha256",
   "chksum_sha256": "7712d8127cb61af136ca8aadd887593c23724533a512f65871c22024ada8acf9",
   "format": 1
  },
  {
   "name": "pyproject.toml",
   "ftype": "file",
   "chksum_type": "sha256",
   "chksum_sha256": "afa2beb3d5f6060ea17d98e7eb24f27b4e403c53b1783ab128d563df693e76a5",
   "format": 1
  },
  {
   "name": "CHANGELOG.md",
   "ftype": "file",
   "chksum_type": "sha256",
   "chksum_sha256": "f7f05d557d7c1ac1f40f872e1292ca1595a6b8593a18c365dd2113ee4b5508d9",
   "format": 1
  },
  {
   "name": ".pylintrc",
   "ftype": "file",
   "chksum_type": "sha256",
   "chksum_sha256": "9eea19ca4807b5e6263dcb35d98f1eabc6dac3dd5bf4cd4e9000830125673101",
   "format": 1
  },
  {
   "name": "LICENSE",
   "ftype": "file",
   "chksum_type": "sha256",
   "chksum_sha256": "c782df729a21186bcb2b5114a188a979cffcf77da6eb64f0ec3bedf5168126e1",
   "format": 1
  },
  {
   "name": "README.md",
   "ftype": "file",
   "chksum_type": "sha256",
   "chksum_sha256": "91c86e93cfa7eb3bc44985b353e112effddea5a6468091486d6153475701c994",
   "format": 1
  },
  {
   "name": "cpp",
   "ftype": "dir",
   "chksum_type": null,
   "chksum_sha256": null,
   "format": 1
  },
  {
   "name": "cpp/edd_dbbc",
   "ftype": "dir",
   "chksum_type": null,
   "chksum_sha256": null,
   "format": 1
  },
  {
   "name": "cpp/edd_dbbc/testing_tools.cuh",
   "ftype": "file",
   "chksum_type": "sha256",
   "chksum_sha256": "14e8723a34f4c583f9c62a2bdc005d74f4f86bccb092a5a18788f3f492500e99",
   "format": 1
  },
  {
   "name": "cpp/edd_dbbc/math_tools.cuh",
   "ftype": "file",
   "chksum_type": "sha256",
   "chksum_sha256": "2372e0f55e51b23295fea45fb34abae9724e3b2bac871f897542eef3358b9236",
   "format": 1
  },
  {
   "name": "cpp/edd_dbbc/ddc",
   "ftype": "dir",
   "chksum_type": null,
   "chksum_sha256": null,
   "format": 1
  },
  {
   "name": "cpp/edd_dbbc/ddc/src",
   "ftype": "dir",
   "chksum_type": null,
   "chksum_sha256": null,
   "format": 1
  },
  {
   "name": "cpp/edd_dbbc/ddc/src/processing.cu",
   "ftype": "file",
   "chksum_type": "sha256",
   "chksum_sha256": "3d619e54e9bfedda0a7df027c473cbc76bf0f645b3638b20c4698784b42cbbbe",
   "format": 1
  },
  {
   "name": "cpp/edd_dbbc/ddc/src/ddc.cu",
   "ftype": "file",
   "chksum_type": "sha256",
   "chksum_sha256": "306a371dc53afe29d0a6c32fab1a94ad69860895df245f92b65a8f4f235ca9c7",
   "format": 1
  },
  {
   "name": "cpp/edd_dbbc/ddc/src/pipeline.cu",
   "ftype": "file",
   "chksum_type": "sha256",
   "chksum_sha256": "e3779fe280265e6e8effa431632917719ef1f1de49cccb2cf34b06315072a8fe",
   "format": 1
  },
  {
   "name": "cpp/edd_dbbc/ddc/src/signal.cu",
   "ftype": "file",
   "chksum_type": "sha256",
   "chksum_sha256": "edfa22673fd651eb229620d8c45fe0a7b34fe13edc1d291328202af4b08ebbde",
   "format": 1
  },
  {
   "name": "cpp/edd_dbbc/ddc/src/filter.cu",
   "ftype": "file",
   "chksum_type": "sha256",
   "chksum_sha256": "451f1d55e3740710795b6f1fafb325745f166e0caffa0074a454ae468510c00f",
   "format": 1
  },
  {
   "name": "cpp/edd_dbbc/ddc/ddc.cuh",
   "ftype": "file",
   "chksum_type": "sha256",
   "chksum_sha256": "525ae741a9639e3162604785feeb7008c0ef75778531964afbb4f6ff2017b747",
   "format": 1
  },
  {
   "name": "cpp/edd_dbbc/ddc/pipeline.cuh",
   "ftype": "file",
   "chksum_type": "sha256",
   "chksum_sha256": "5115e2f76c7bc652a75271fdaf67c6ac25a2fdd49df8c55075f5376c47a7e0e4",
   "format": 1
  },
  {
   "name": "cpp/edd_dbbc/ddc/test",
   "ftype": "dir",
   "chksum_type": null,
   "chksum_sha256": null,
   "format": 1
  },
  {
   "name": "cpp/edd_dbbc/ddc/test/test_processing.cuh",
   "ftype": "file",
   "chksum_type": "sha256",
   "chksum_sha256": "673a09fe9b31269474748710e3b7a7bd6a7e7e6824d28918312bbdac9d2c6e96",
   "format": 1
  },
  {
   "name": "cpp/edd_dbbc/ddc/test/CMakeLists.txt",
   "ftype": "file",
   "chksum_type": "sha256",
   "chksum_sha256": "457acc538c5a82843191da39f4021824b0972c0357071c6b317288425c03e606",
   "format": 1
  },
  {
   "name": "cpp/edd_dbbc/ddc/test/test_ddc.py",
   "ftype": "file",
   "chksum_type": "sha256",
   "chksum_sha256": "2f50335cbd3f9314d4454b5d1c4a6f1dfbacbc005036975bd38dd6ad5923243b",
   "format": 1
  },
  {
   "name": "cpp/edd_dbbc/ddc/test/test_ddc.cuh",
   "ftype": "file",
   "chksum_type": "sha256",
   "chksum_sha256": "8072c1c1d66f13938419724d3bada9fb721583fd35e3e00dcdc20b927b9fde84",
   "format": 1
  },
  {
   "name": "cpp/edd_dbbc/ddc/test/test_pipeline.cuh",
   "ftype": "file",
   "chksum_type": "sha256",
   "chksum_sha256": "72d67377ba70276511c7c1955782a298466b27fba1c89301646fc1449e17b8e0",
   "format": 1
  },
  {
   "name": "cpp/edd_dbbc/ddc/test/test_filter.cuh",
   "ftype": "file",
   "chksum_type": "sha256",
   "chksum_sha256": "075c7c12f8677d4b20f54ceede74d74f052d8c697756a799bed1da119a39c956",
   "format": 1
  },
  {
   "name": "cpp/edd_dbbc/ddc/test/test_signal.cuh",
   "ftype": "file",
   "chksum_type": "sha256",
   "chksum_sha256": "e77ee93b5682ff10c6970dd1bcec34fc79b0f178999f38bc7cb9634309c82f20",
   "format": 1
  },
  {
   "name": "cpp/edd_dbbc/ddc/test/test_main.cu",
   "ftype": "file",
   "chksum_type": "sha256",
   "chksum_sha256": "a71040983687af7d5dfc7f77989c71e9ede377c9a9cb883e4605260e523c21f8",
   "format": 1
  },
  {
   "name": "cpp/edd_dbbc/ddc/filter.h",
   "ftype": "file",
   "chksum_type": "sha256",
   "chksum_sha256": "255d3b79574ca4ca1da3707b49615039bd86579d522c103c76fd9e09a353e3f1",
   "format": 1
  },
  {
   "name": "cpp/edd_dbbc/ddc/config.hpp",
   "ftype": "file",
   "chksum_type": "sha256",
   "chksum_sha256": "6de9c24726a39d925a197ab95d568083f20b37a1165c333c34627a40116fc6fd",
   "format": 1
  },
  {
   "name": "cpp/edd_dbbc/ddc/CMakeLists.txt",
   "ftype": "file",
   "chksum_type": "sha256",
   "chksum_sha256": "eac7e4e5e61543bd55eb8fd5038f57598f4b8f7616ca378cdefd8796c29e4baf",
   "format": 1
  },
  {
   "name": "cpp/edd_dbbc/ddc/io.cuh",
   "ftype": "file",
   "chksum_type": "sha256",
   "chksum_sha256": "49c29893addc4bb10075f16cb43e747f78482d4605555f2802fe938c5d7fe500",
   "format": 1
  },
  {
   "name": "cpp/edd_dbbc/ddc/signal.h",
   "ftype": "file",
   "chksum_type": "sha256",
   "chksum_sha256": "7ae12456b7575dc8eca2066b902d0427a8994ba1c7caa0579cf9aef68061a1b9",
   "format": 1
  },
  {
   "name": "cpp/edd_dbbc/ddc/cli",
   "ftype": "dir",
   "chksum_type": null,
   "chksum_sha256": null,
   "format": 1
  },
  {
   "name": "cpp/edd_dbbc/ddc/cli/ddc_benchmark.cu",
   "ftype": "file",
   "chksum_type": "sha256",
   "chksum_sha256": "943140d51b70790df6520253df6d960ad5e6c37db20b8233b9ee8e8f236192cf",
   "format": 1
  },
  {
   "name": "cpp/edd_dbbc/ddc/cli/ddc_cli.cu",
   "ftype": "file",
   "chksum_type": "sha256",
   "chksum_sha256": "48ef7725ca0698fb4c5ea5137b9d4e2ff06f21f988251cc2ac9bdbe703dd2b8d",
   "format": 1
  },
  {
   "name": "cpp/edd_dbbc/ddc/cli/example.cu",
   "ftype": "file",
   "chksum_type": "sha256",
   "chksum_sha256": "64dc6736015739cb0a9b3a9f7b91a090ef96bf464c464f9a581f60be54be9b65",
   "format": 1
  },
  {
   "name": "cpp/edd_dbbc/ddc/processing.h",
   "ftype": "file",
   "chksum_type": "sha256",
   "chksum_sha256": "f2c7640a1cca627c30ada1790ad5db87d98ddcb9de985425d0b95cc34060cb4c",
   "format": 1
  },
  {
   "name": "cpp/edd_dbbc/CMakeLists.txt",
   "ftype": "file",
   "chksum_type": "sha256",
   "chksum_sha256": "03d7c9e202cf77223ec0da4bb7636146d4a985a339d4d38e3179bfa96f574f3c",
   "format": 1
  },
  {
   "name": "cpp/edd_dbbc/cuerror.cuh",
   "ftype": "file",
   "chksum_type": "sha256",
   "chksum_sha256": "d8681657d449ac8da81e199accb949389bd45d53df86f986aa71906da05cbf40",
   "format": 1
  },
  {
   "name": "cpp/edd_dbbc/vdif",
   "ftype": "dir",
   "chksum_type": null,
   "chksum_sha256": null,
   "format": 1
  },
  {
   "name": "cpp/edd_dbbc/vdif/src",
   "ftype": "dir",
   "chksum_type": null,
   "chksum_sha256": null,
   "format": 1
  },
  {
   "name": "cpp/edd_dbbc/vdif/src/packer.cu",
   "ftype": "file",
   "chksum_type": "sha256",
   "chksum_sha256": "9cf2884cf0a728668170ae15670056c53a76b10d2e1e63da90acd844d6d82302",
   "format": 1
  },
  {
   "name": "cpp/edd_dbbc/vdif/src/sender.cpp",
   "ftype": "file",
   "chksum_type": "sha256",
   "chksum_sha256": "c01675f84ce70a386b3b34f54b41deaef590ea6d8ac8801507bc6c88ec923850",
   "format": 1
  },
  {
   "name": "cpp/edd_dbbc/vdif/src/pipeline.cu",
   "ftype": "file",
   "chksum_type": "sha256",
   "chksum_sha256": "4670dc33af9d46620242a18d625afad609278c7cdc782fe83ef7a01df2cff09f",
   "format": 1
  },
  {
   "name": "cpp/edd_dbbc/vdif/src/kernels.cu",
   "ftype": "file",
   "chksum_type": "sha256",
   "chksum_sha256": "8bf8e1c0cb328b05bb88e5ed277ced188d9bb86d317d22a9d6710cbb52535406",
   "format": 1
  },
  {
   "name": "cpp/edd_dbbc/vdif/src/header.cpp",
   "ftype": "file",
   "chksum_type": "sha256",
   "chksum_sha256": "4817cfbf22319284628d2d053418ed439c4f1c3b04e42c02c0a94ce40b697fc8",
   "format": 1
  },
  {
   "name": "cpp/edd_dbbc/vdif/pipeline.cuh",
   "ftype": "file",
   "chksum_type": "sha256",
   "chksum_sha256": "bb2fe68b8e8c91f78711269b2a3e7e9200b8e584e700a8c7a97bff3b9c1f8632",
   "format": 1
  },
  {
   "name": "cpp/edd_dbbc/vdif/CMakeLists.txt",
   "ftype": "file",
   "chksum_type": "sha256",
   "chksum_sha256": "fbb9c66f7875f7b054012ec035b1408f12106bce205c21dd95bd1199b1f20d37",
   "format": 1
  },
  {
   "name": "cpp/edd_dbbc/vdif/packer.cuh",
   "ftype": "file",
   "chksum_type": "sha256",
   "chksum_sha256": "f3eb1f376cf4989a173510d6a156d63045bb558d99269c7110d8a74a98826264",
   "format": 1
  },
  {
   "name": "cpp/edd_dbbc/vdif/test",
   "ftype": "dir",
   "chksum_type": null,
   "chksum_sha256": null,
   "format": 1
  },
  {
   "name": "cpp/edd_dbbc/vdif/test/test_header.h",
   "ftype": "file",
   "chksum_type": "sha256",
   "chksum_sha256": "df861967414c7343a9882434d9d58b8caaf04ae9f38e89b72023d68324e48017",
   "format": 1
  },
  {
   "name": "cpp/edd_dbbc/vdif/test/test_pipeline.cuh",
   "ftype": "file",
   "chksum_type": "sha256",
   "chksum_sha256": "7dc484989bc7e3c892bee7a8ba6fc4b87bcd9189bb0ad6dd492e97b0591d479c",
   "format": 1
  },
  {
   "name": "cpp/edd_dbbc/vdif/test/gtest_vdif.cu",
   "ftype": "file",
   "chksum_type": "sha256",
   "chksum_sha256": "1ce7c8bc262adf78c824816762262041a69a8b4f4c5e2eb09849acd98defe417",
   "format": 1
  },
  {
   "name": "cpp/edd_dbbc/vdif/test/test_packer.cuh",
   "ftype": "file",
   "chksum_type": "sha256",
   "chksum_sha256": "d5fe1e8b108f2e9e1a595f372a54c61285a4560ffd0869ffe27a15ce20df85f1",
   "format": 1
  },
  {
   "name": "cpp/edd_dbbc/vdif/test/CMakeLists.txt",
   "ftype": "file",
   "chksum_type": "sha256",
   "chksum_sha256": "ef4e53475ecad70e2efa2f6d4c32bfd5ff71142b3ffab117deb82c8e2141607d",
   "format": 1
  },
  {
   "name": "cpp/edd_dbbc/vdif/cli",
   "ftype": "dir",
   "chksum_type": null,
   "chksum_sha256": null,
   "format": 1
  },
  {
   "name": "cpp/edd_dbbc/vdif/cli/packer_cli.cu",
   "ftype": "file",
   "chksum_type": "sha256",
   "chksum_sha256": "a09787fd320e1f9036c9727b1635a77ff5c399e825c27a7114f2dda7ac315a29",
   "format": 1
  },
  {
   "name": "cpp/edd_dbbc/vdif/cli/send_cli.cpp",
   "ftype": "file",
   "chksum_type": "sha256",
   "chksum_sha256": "5a337c927d48b54ac5045d4da536cb9e4610f813e4d56c4d9606b4d00ea36d06",
   "format": 1
  },
  {
   "name": "cpp/edd_dbbc/vdif/header.h",
   "ftype": "file",
   "chksum_type": "sha256",
   "chksum_sha256": "eca674b78ce391d24ec6ba1d1211d3ef1b853ecbf21aefa5e93a2e35067872a8",
   "format": 1
  },
  {
   "name": "cpp/edd_dbbc/vdif/sender.h",
   "ftype": "file",
   "chksum_type": "sha256",
   "chksum_sha256": "2f11441c8bd150ab84118684601aa49cc1ef678155bab920eacd0e3eb0cd7101",
   "format": 1
  },
  {
   "name": "cpp/edd_dbbc/test",
   "ftype": "dir",
   "chksum_type": null,
   "chksum_sha256": null,
   "format": 1
  },
  {
   "name": "cpp/edd_dbbc/test/test_testing_tools.cuh",
   "ftype": "file",
   "chksum_type": "sha256",
   "chksum_sha256": "29ecea72cae108f1edc7d2878854b051658e0f8c2630e720a63c26f709ea18c7",
   "format": 1
  },
  {
   "name": "cpp/edd_dbbc/test/gtest_tools.cu",
   "ftype": "file",
   "chksum_type": "sha256",
   "chksum_sha256": "0a42867d64a98be932918941748491aa3e7f08cc4f2823a6267c08f7f9482062",
   "format": 1
  },
  {
   "name": "cpp/edd_dbbc/test/CMakeLists.txt",
   "ftype": "file",
   "chksum_type": "sha256",
   "chksum_sha256": "778f3edd590e47c34ef865ab508d5a3a95b9e445c0ce9f8c25ea7e193291af4d",
   "format": 1
  },
  {
   "name": "cpp/edd_dbbc/test/test_math_tools.cuh",
   "ftype": "file",
   "chksum_type": "sha256",
   "chksum_sha256": "9367434154b2d6cf1f8ffb3988297b70c1d2dca9a101db174e687764a5ba6588",
   "format": 1
  },
  {
   "name": "cpp/cmake",
   "ftype": "dir",
   "chksum_type": null,
   "chksum_sha256": null,
   "format": 1
  },
  {
   "name": "cpp/cmake/psrdada.cmake",
   "ftype": "file",
   "chksum_type": "sha256",
   "chksum_sha256": "86c62638bc8cc89950c7e9bc0a20d9ce701703f8f9b84976d0311aeaff4eeab3",
   "format": 1
  },
  {
   "name": "cpp/cmake/googlebenchmark.cmake",
   "ftype": "file",
   "chksum_type": "sha256",
   "chksum_sha256": "93df229a1df32517ec8a51f02f4d095f00a265a865eac51575c90cd04dea9509",
   "format": 1
  },
  {
   "name": "cpp/cmake/compiler_settings.cmake",
   "ftype": "file",
   "chksum_type": "sha256",
   "chksum_sha256": "2b5357a75e9b4044eca782819549c37b95cd30417eb6a24178e34a0c66997d60",
   "format": 1
  },
  {
   "name": "cpp/cmake/psrdadacpp.cmake",
   "ftype": "file",
   "chksum_type": "sha256",
   "chksum_sha256": "303041f76d44c8cb4d283107068100a3ed638cc61dd0a6267d92a372ce49a09d",
   "format": 1
  },
  {
   "name": "cpp/cmake/dependencies.cmake",
   "ftype": "file",
   "chksum_type": "sha256",
   "chksum_sha256": "5bc7527395e7bed84260e1124ccfdcfaa1d26bcefa56bada17c8570b6d93eb8e",
   "format": 1
  },
  {
   "name": "cpp/cmake/cuda.cmake",
   "ftype": "file",
   "chksum_type": "sha256",
   "chksum_sha256": "436a93184523567c1ae7e3d1ee27379da958bd4c7f675ad97579bfcbfaf119f6",
   "format": 1
  },
  {
   "name": "cpp/CMakeLists.txt",
   "ftype": "file",
   "chksum_type": "sha256",
   "chksum_sha256": "ba643d5b700791b61364c7f4f9131020b1766a29ec16fcdd3bdf98a0a9b1b42f",
   "format": 1
  },
  {
   "name": "roles",
   "ftype": "dir",
   "chksum_type": null,
   "chksum_sha256": null,
   "format": 1
  },
  {
   "name": "roles/vdif_packer",
   "ftype": "dir",
   "chksum_type": null,
   "chksum_sha256": null,
   "format": 1
  },
  {
   "name": "roles/vdif_packer/templates",
   "ftype": "dir",
   "chksum_type": null,
   "chksum_sha256": null,
   "format": 1
  },
  {
   "name": "roles/vdif_packer/templates/buffer_stats.json",
   "ftype": "file",
   "chksum_type": "sha256",
   "chksum_sha256": "9e9701e28c858b2ed0520225c80ced6f0e5e2a33866249aeb9e5bcd2b0fc629c",
   "format": 1
  },
  {
   "name": "roles/vdif_packer/tasks",
   "ftype": "dir",
   "chksum_type": null,
   "chksum_sha256": null,
   "format": 1
  },
  {
   "name": "roles/vdif_packer/tasks/main.yml",
   "ftype": "file",
   "chksum_type": "sha256",
   "chksum_sha256": "30d7a2e1fa6eab77a70565080af2c144508b0449469f391593dfe92fae7b43cb",
   "format": 1
  },
  {
   "name": "roles/vdif_packer/defaults",
   "ftype": "dir",
   "chksum_type": null,
   "chksum_sha256": null,
   "format": 1
  },
  {
   "name": "roles/vdif_packer/defaults/main.yml",
   "ftype": "file",
   "chksum_type": "sha256",
   "chksum_sha256": "0ad7fa280108c3b1f1234b57ad0b0708362b2497f2d0145ab627c428d195f73e",
   "format": 1
  },
  {
   "name": "roles/ddc_subscriber",
   "ftype": "dir",
   "chksum_type": null,
   "chksum_sha256": null,
   "format": 1
  },
  {
   "name": "roles/ddc_subscriber/defaults",
   "ftype": "dir",
   "chksum_type": null,
   "chksum_sha256": null,
   "format": 1
  },
  {
   "name": "roles/ddc_subscriber/defaults/main.yml",
   "ftype": "file",
   "chksum_type": "sha256",
   "chksum_sha256": "0ad7fa280108c3b1f1234b57ad0b0708362b2497f2d0145ab627c428d195f73e",
   "format": 1
  },
  {
   "name": "roles/ddc_subscriber/tasks",
   "ftype": "dir",
   "chksum_type": null,
   "chksum_sha256": null,
   "format": 1
  },
  {
   "name": "roles/ddc_subscriber/tasks/main.yml",
   "ftype": "file",
   "chksum_type": "sha256",
   "chksum_sha256": "a078598c334833c94d225a1718ba3e9cefbf734c62eced689d84ebda9dcca0b1",
   "format": 1
  },
  {
   "name": "roles/ddc_plotter",
   "ftype": "dir",
   "chksum_type": null,
   "chksum_sha256": null,
   "format": 1
  },
  {
   "name": "roles/ddc_plotter/defaults",
   "ftype": "dir",
   "chksum_type": null,
   "chksum_sha256": null,
   "format": 1
  },
  {
   "name": "roles/ddc_plotter/defaults/main.yml",
   "ftype": "file",
   "chksum_type": "sha256",
   "chksum_sha256": "517a7e93cb09bc2e1620610dadd48080aa5d775b2b0586a2703152ab8ddfc631",
   "format": 1
  },
  {
   "name": "roles/ddc_plotter/tasks",
   "ftype": "dir",
   "chksum_type": null,
   "chksum_sha256": null,
   "format": 1
  },
  {
   "name": "roles/ddc_plotter/tasks/main.yml",
   "ftype": "file",
   "chksum_type": "sha256",
   "chksum_sha256": "d5c31ca9974996676a0fb9ae9bfea7aed5d918d438f9345102ff73dcd2c864da",
   "format": 1
  },
  {
   "name": "roles/ddc_plotter/templates",
   "ftype": "dir",
   "chksum_type": null,
   "chksum_sha256": null,
   "format": 1
  },
  {
   "name": "roles/ddc_plotter/templates/spectrum_plotter_vars.json",
   "ftype": "file",
   "chksum_type": "sha256",
   "chksum_sha256": "415a646a3cd58f41af4a1d230a2b3e61865b37cddae0c321f860ae6e1fc3a2b6",
   "format": 1
  },
  {
   "name": "roles/ddc_plotter/templates/spectrum.js",
   "ftype": "file",
   "chksum_type": "sha256",
   "chksum_sha256": "9bf37ec6ffadd1683dad56a0b8796ddef949ff72146c57b5df84ec77c1312846",
   "format": 1
  },
  {
   "name": "roles/ddc_plotter/templates/spectrum_plotter.json",
   "ftype": "file",
   "chksum_type": "sha256",
   "chksum_sha256": "f44861718c36cf6a822a7ee272113de9f96fb02e277e8b3a9685eb06f62f315c",
   "format": 1
  },
  {
   "name": "roles/ddc_plotter/templates/waterfall.js",
   "ftype": "file",
   "chksum_type": "sha256",
   "chksum_sha256": "fc307cdfbf347ae8ac201a1df84381df9f0ec5aeac06e203577366e7acac749a",
   "format": 1
  },
  {
   "name": "roles/edd_dbbc",
   "ftype": "dir",
   "chksum_type": null,
   "chksum_sha256": null,
   "format": 1
  },
  {
   "name": "roles/edd_dbbc/templates",
   "ftype": "dir",
   "chksum_type": null,
   "chksum_sha256": null,
   "format": 1
  },
  {
   "name": "roles/edd_dbbc/templates/Dockerfile",
   "ftype": "file",
   "chksum_type": "sha256",
   "chksum_sha256": "3d3793301b09bd1ee5b1bf5b6a7021c05d3d9435fe2e60acc1b9a864b103d9ca",
   "format": 1
  },
  {
   "name": "roles/edd_dbbc/tasks",
   "ftype": "dir",
   "chksum_type": null,
   "chksum_sha256": null,
   "format": 1
  },
  {
   "name": "roles/edd_dbbc/tasks/main.yml",
   "ftype": "file",
   "chksum_type": "sha256",
   "chksum_sha256": "5335e26777dec43749d6ac217a46b079a8618f2a8f875db7faece3e10a483ff4",
   "format": 1
  },
  {
   "name": "roles/edd_dbbc/defaults",
   "ftype": "dir",
   "chksum_type": null,
   "chksum_sha256": null,
   "format": 1
  },
  {
   "name": "roles/edd_dbbc/defaults/main.yml",
   "ftype": "file",
   "chksum_type": "sha256",
   "chksum_sha256": "fd63566d08827e8ef6ae2f02229536e92346dbfbe470cda6898f645029696797",
   "format": 1
  },
  {
   "name": "roles/ddc_processor",
   "ftype": "dir",
   "chksum_type": null,
   "chksum_sha256": null,
   "format": 1
  },
  {
   "name": "roles/ddc_processor/tasks",
   "ftype": "dir",
   "chksum_type": null,
   "chksum_sha256": null,
   "format": 1
  },
  {
   "name": "roles/ddc_processor/tasks/main.yml",
   "ftype": "file",
   "chksum_type": "sha256",
   "chksum_sha256": "f11a13b558eb7a5fbd7316cb011f88bc536dec28a9b5dce031cd003479a5a35b",
   "format": 1
  },
  {
   "name": "roles/ddc_processor/templates",
   "ftype": "dir",
   "chksum_type": null,
   "chksum_sha256": null,
   "format": 1
  },
  {
   "name": "roles/ddc_processor/templates/ddc_sensors.json",
   "ftype": "file",
   "chksum_type": "sha256",
   "chksum_sha256": "aaf127ba39f72af07a17455857381e5a53bbe48ce78931ec7be377b7b1658348",
   "format": 1
  },
  {
   "name": "roles/ddc_processor/defaults",
   "ftype": "dir",
   "chksum_type": null,
   "chksum_sha256": null,
   "format": 1
  },
  {
   "name": "roles/ddc_processor/defaults/main.yml",
   "ftype": "file",
   "chksum_type": "sha256",
   "chksum_sha256": "0ad7fa280108c3b1f1234b57ad0b0708362b2497f2d0145ab627c428d195f73e",
   "format": 1
  }
 ],
 "format": 1
}