{
  "datasource": {
    "type": "redis-datasource",
    "uid": "redisdatastreams"
  },
  "description": "Plot of the latest spectrum of $data_streams",
  "gridPos": {
    "h": 8,
    "w": 24,
    "x": 0,
    "y": 6
  },
  "id": 4,
  "maxPerRow": 4,
  "options": {
    "config": "",
    "data": "",
    "layout": {
      "autosize": true,
      "margin": {
        "b": 20,
        "l": 40,
        "r": 0,
        "t": 0
      },
      "xaxis": {
        "autorange": true,
        "range": [
          349500000,
          350496096
        ],
        "type": "linear"
      }
    },
    "onclick": "",
    "script": "result = {}\ndata.series[0].fields.forEach((object) => {\n  result[object[\"name\"]] = object[\"values\"].buffer[0]\n});\n\nconst uint8Array = new Uint8Array(atob(result[\"data\"]).split('').map(char => char.charCodeAt(0)));\n// Create a DataView on the Uint8Array\nconst dataView = new DataView(uint8Array.buffer);\n// Get the number of elements in the array (1024 in this example)\nconst numElements = dataView.byteLength / 4;\n// Create a new Float32Array with the same number of elements\nconst x = new Float32Array(numElements);\n\nconst v_min = result[\"f_min\"];\nconst v_max = result[\"f_max\"];\nconst bw = v_max - v_min \nconst res = bw / numElements;\n\n\nconst y = new Float32Array(numElements);\n\nfor (let i = 0; i < numElements; i++) {\n  y[i] = dataView.getFloat32(i * 4, true); // true specifies little-endian byte order\n  x[i] = v_min + i * res\n}\nvar trace = {\n  y: Array.from(y),\n  x: Array.from(x)\n};\n\nreturn {data:[trace]};\n"
  },
  "pluginVersion": "9.3.2",
  "repeat": "data_streams",
  "repeatDirection": "h",
  "targets": [
    {
      "command": "json.get",
      "datasource": {
        "type": "redis-datasource",
        "uid": "redisdatastreams"
      },
      "hide": false,
      "keyName": "$data_streams",
      "path": "$",
      "query": "",
      "refId": "A",
      "streaming": true,
      "streamingCapacity": 1000,
      "streamingDataType": "DataFrame",
      "streamingInterval": 1000,
      "type": "json"
    }
  ],
  "title": "Current Spectrum of $data_streams",
  "type": "ae3e-plotly-panel"
},
{
  "datasource": {
    "type": "redis-datasource",
    "uid": "redisdatastreams"
  },
  "description": "Waterfall plot of $data_streams",
  "gridPos": {
    "h": 8,
    "w": 24,
    "x": 0,
    "y": 38
  },
  "id": 7,
  "maxPerRow": 4,
  "options": {
    "config": "",
    "data": "",
    "layout": {
      "autosize": true,
      "margin": {
        "b": 20,
        "l": 100,
        "r": 0,
        "t": 0
      },
      "xaxis": {
        "autorange": true,
        "range": [
          348501945.52529186,
          349501945.5252918
        ],
        "type": "linear"
      }
    },
    "onclick": "window.updateVariables({query:{'var-project':'test'}, partial: true})",
    "script": "// FUNCTIONS\nfunction parse_data(series)\n{\n    result = {}\n    series.fields.forEach((object) => {\n      result[object[\"name\"]] = object[\"values\"].buffer[0]\n    });\n    return result;\n}\n\nfunction remove_old_items(name, max_length)\n{\n    var keys = Object.keys(window.sessionStorage)\n        .filter(key => key.includes(name))\n        .sort();\n    for(let i = 0; i < keys.length - max_length; i++)\n    {\n        window.sessionStorage.removeItem(keys[i]);\n    }\n}\n\nfunction initialize_array(n_spectra, nfft)\n{\n    var data_array = new Array(n_spectra);\n    for(var i = 0; i < n_spectra; i++)\n    {\n      data_array[i] = new Array(nfft);\n    }\n    return data_array;\n}\n\nfunction seconds2timestamp(seconds) {\n    return new Date(parseInt(seconds)).toISOString();\n}\n\nfunction compute(n_spectra, f_min, f_max, name)\n{\n    var sorted = Object.keys(window.sessionStorage).sort();\n    var encoded = window.sessionStorage.getItem(sorted[0]);\n    var uint8Array = new Uint8Array(atob(encoded).split('').map(char => char.charCodeAt(0)));\n    var dataView = new DataView(uint8Array.buffer);\n    var nfft = dataView.byteLength / 4;\n    var bw = f_max - f_min\n    var res = bw / nfft;\n    var x = new Array(nfft);\n    var y = new Array(nfft);\n    var z = initialize_array(n_spectra, nfft);\n    for (var i = 0; i < nfft; i++) {\n        x[i] = f_min + i * res;\n        z[0][i] = dataView.getFloat32(i * 4, true); // true specifies little-endian byte order\n    }\n    var cnt = 0;\n    for(var i = 1; i < sorted.length; i++)\n    {\n        if(sorted[i].includes(name))\n        {\n            cnt = cnt + 1;\n            if(cnt >= n_spectra){\n                continue;\n            }\n            encoded = window.sessionStorage.getItem(sorted[i]);\n            uint8Array = new Uint8Array(atob(encoded).split('').map(char => char.charCodeAt(0)));\n            dataView = new DataView(uint8Array.buffer);\n            //y[i] = seconds2timestamp(sorted[i]);\n            y[cnt] = sorted[i].replace(name + \"/\",\"\").split(\".\")[0].replace(\".\");\n            for (var ii = 0; ii < nfft; ii++) {\n                z[cnt][ii] = dataView.getFloat32(ii * 4, true); // true specifies little-endian byte order\n            }\n        }\n    }\n    return {\"x\":x, \"y\":y, \"z\":z};\n}\n// VARIBALES\nvar n_spectra = parseInt(document.getElementById(\"var-n_spectra\").value);\nvar stream_name = data.request.scopedVars.data_streams.value.split(\":\")[1];\nvar res_dict = parse_data(data.series[0]);\nwindow.sessionStorage.setItem(\n    stream_name + \"/\" + res_dict[\"timestamp\"], res_dict[\"data\"]\n);\nremove_old_items(stream_name, n_spectra);\nvar result = compute(n_spectra, res_dict[\"f_min\"], res_dict[\"f_max\"], stream_name);\n\nvar trace = [{\n  x: result[\"x\"],\n  y: result[\"y\"],\n  z: result[\"z\"],\n  type: 'heatmap'\n}];\n\nreturn {data:trace};"
  },
  "repeat": "data_streams",
  "repeatDirection": "h",
  "targets": [
    {
      "command": "json.get",
      "datasource": {
        "type": "redis-datasource",
        "uid": "redisdatastreams"
      },
      "keyName": "$data_streams",
      "path": "$",
      "query": "",
      "refId": "A",
      "streaming": true,
      "streamingDataType": "DataFrame",
      "type": "json"
    }
  ],
  "title": "Waterfall plot of $data_streams",
  "type": "ae3e-plotly-panel"
}