{
    "collapsed": false,
    "datasource": {
      "type": "influxdb",
      "uid": "influxdb"
    },
    "gridPos": {
      "h": 1,
      "w": 24,
      "x": 0,
      "y": 11
    },
    "id": 21,
    "panels": [],
    "targets": [
      {
        "datasource": {
          "type": "influxdb",
          "uid": "influxdb"
        },
        "refId": "A"
      }
    ],
    "title": "IO Status",
    "type": "row"
  },
  {
    "aliasColors": {
      "Expected Heaps": "dark-green",
      "Lost heaps": "dark-red"
    },
    "bars": false,
    "dashLength": 10,
    "dashes": false,
    "datasource": {
      "type": "influxdb",
      "uid": "influxdb"
    },
    "description": "",
    "fill": 5,
    "fillGradient": 0,
    "gridPos": {
      "h": 8,
      "w": 7,
      "x": 0,
      "y": 12
    },
    "hiddenSeries": false,
    "id": 13,
    "interval": "",
    "legend": {
      "avg": false,
      "current": false,
      "max": false,
      "min": false,
      "show": true,
      "total": false,
      "values": false
    },
    "lines": true,
    "linewidth": 1,
    "maxDataPoints": 2048,
    "nullPointMode": "connected",
    "options": {
      "alertThreshold": true
    },
    "percentage": false,
    "pluginVersion": "9.3.2",
    "pointradius": 2,
    "points": false,
    "renderer": "flot",
    "seriesOverrides": [],
    "spaceLength": 10,
    "stack": false,
    "steppedLine": true,
    "targets": [
      {
        "alias": "Expected Heaps",
        "datasource": {
          "type": "influxdb",
          "uid": "influxdb"
        },
        "orderByTime": "ASC",
        "policy": "default",
        "query": "SELECT mean(\"slot_expected_heaps_input_buffer\") FROM "{{ measurement }}" WHERE (\"pipeline_id\" = '{{ container_name }}') AND  $timeFilter GROUP BY time($__interval) fill(null)",
        "rawQuery": true,
        "refId": "B",
        "resultFormat": "time_series"
      },
      {
        "alias": "Lost heaps",
        "datasource": {
          "type": "influxdb",
          "uid": "influxdb"
        },
        "orderByTime": "ASC",
        "policy": "default",
        "query": "SELECT mean(\"slot_expected_heaps_input_buffer\") - min(\"slot_received_heaps_polarization_0\") FROM "{{ measurement }}" WHERE (\"pipeline_id\" = '{{ container_name }}') AND  $timeFilter GROUP BY time($__interval) fill(null)",
        "rawQuery": true,
        "refId": "A",
        "resultFormat": "time_series"
      }
    ],
    "thresholds": [],
    "timeRegions": [],
    "title": "Heap Loss",
    "tooltip": {
      "shared": true,
      "sort": 0,
      "value_type": "individual"
    },
    "type": "graph",
    "xaxis": {
      "mode": "time",
      "show": true,
      "values": []
    },
    "yaxes": [
      {
        "$$hashKey": "object:2039",
        "format": "short",
        "logBase": 10,
        "min": "1",
        "show": true
      },
      {
        "$$hashKey": "object:2040",
        "format": "short",
        "logBase": 1,
        "show": true
      }
    ],
    "yaxis": {
      "align": false
    }
  },
  {
    "aliasColors": {
      "Input": "dark-blue",
      "Output": "dark-orange"
    },
    "bars": false,
    "dashLength": 10,
    "dashes": false,
    "datasource": {
      "type": "influxdb",
      "uid": "influxdb"
    },
    "description": "",
    "fieldConfig": {
      "defaults": {
        "unit": "percentunit"
      },
      "overrides": []
    },
    "fill": 1,
    "fillGradient": 0,
    "gridPos": {
      "h": 8,
      "w": 4,
      "x": 7,
      "y": 12
    },
    "hiddenSeries": false,
    "id": 8,
    "legend": {
      "avg": false,
      "current": false,
      "max": false,
      "min": false,
      "show": true,
      "total": false,
      "values": false
    },
    "lines": true,
    "linewidth": 1,
    "nullPointMode": "connected",
    "options": {
      "alertThreshold": true
    },
    "percentage": false,
    "pluginVersion": "9.3.2",
    "pointradius": 2,
    "points": false,
    "renderer": "flot",
    "seriesOverrides": [],
    "spaceLength": 10,
    "stack": false,
    "steppedLine": false,
    "targets": [
      {
        "alias": "Input Pol 0",
        "datasource": {
          "type": "influxdb",
          "uid": "influxdb"
        },
        "orderByTime": "ASC",
        "policy": "default",
        "query": "SELECT max(\"input_buffer_fill_level_input_buffer\") FROM "{{ measurement }}" WHERE (\"pipeline_id\" = '{{ container_name }}') AND $timeFilter GROUP BY time($__interval) fill(null)\n",
        "rawQuery": true,
        "refId": "A",
        "resultFormat": "time_series"
      }
    ],
    "thresholds": [],
    "timeRegions": [],
    "title": "Input Buffer Fill Levels",
    "tooltip": {
      "shared": true,
      "sort": 0,
      "value_type": "individual"
    },
    "type": "graph",
    "xaxis": {
      "mode": "time",
      "show": true,
      "values": []
    },
    "yaxes": [
      {
        "$$hashKey": "object:3491",
        "format": "percentunit",
        "logBase": 1,
        "min": "0",
        "show": true
      },
      {
        "format": "short",
        "logBase": 1,
        "show": false
      }
    ],
    "yaxis": {
      "align": false
    }
  },
  {
    "datasource": {
      "type": "influxdb",
      "uid": "influxdb"
    },
    "fieldConfig": {
      "defaults": {
        "mappings": [],
        "thresholds": {
          "mode": "absolute",
          "steps": [
            {
              "color": "green",
              "value": null
            },
            {
              "color": "green",
              "value": 5
            }
          ]
        }
      },
      "overrides": []
    },
    "gridPos": {
      "h": 8,
      "w": 4,
      "x": 11,
      "y": 12
    },
    "id": 4,
    "options": {
      "colorMode": "value",
      "graphMode": "none",
      "justifyMode": "auto",
      "orientation": "horizontal",
      "reduceOptions": {
        "calcs": [
          "lastNotNull"
        ],
        "fields": "",
        "values": false
      },
      "textMode": "auto"
    },
    "pluginVersion": "9.3.2",
    "targets": [
      {
        "alias": "Input Buffer Pol 0",
        "datasource": {
          "type": "influxdb",
          "uid": "influxdb"
        },
        "orderByTime": "ASC",
        "policy": "default",
        "query": "SELECT last(\"input_buffer_total_write_input_buffer\") FROM "{{ measurement }}" WHERE (\"pipeline_id\" = '{{ container_name }}') AND  $timeFilter GROUP BY time($__interval) fill(null)",
        "rawQuery": true,
        "refId": "A",
        "resultFormat": "time_series"
      }
    ],
    "title": "Input Buffer Total Read",
    "type": "stat"
  }