{
   "products":[
      {
         "id":"dig_pack_controller",
         "bit_depth":8,
         "sampling_rate":3600000000.0,
         "force_reconfigure":true,
         "predecimation_factor":2,
         "flip_spectrum":true,
         "noise_diode_pattern":{
         "percentage":"0.0",
         "period":"1.0"
         },
         "output_data_streams":{
            "polarization_0":{
               "format":"MPIFR_EDD_Packetizer:1",
            "central_freq": 1350.0
               },
               "polarization_1":{
                  "format":"MPIFR_EDD_Packetizer:1",
            "central_freq": 1350.0
               }
         }
      },
      {
         "id":"timing1",
         "single_pol":1,
         "pol_number":0,
         "mode":"Timing",
         "nchannels":1024,
         "zaplist":"900:1000",
	      "dspsr_params":{"args": "-r -d 1 -minram 1024"},
	      "digifits_params":{"args": "-r -p 1"},
         "input_data_streams":[
            {
               "source":"dig_pack_controller:polarization_0"
            }
         ]
      },
      {
         "id":"timing2",
         "single_pol":1,
         "pol_number":1,
         "mode":"Timing",
         "nchannels":1024,
         "zaplist":"900:1000",
	      "dspsr_params":{"args": "-r -d 1 -minram 1024"},
	      "digifits_params":{"args": "-r -p 1"},
         "input_data_streams":[
            {
               "source":"dig_pack_controller:polarization_1"
            }
         ]
      }
   ]
}
