{
    "products":
    [
    {
          "id":"dig_pack_controller",
          "bit_depth" : 8,
          "sampling_rate": 4000000000.0,
          "predecimation_factor" : 1,
          "flip_spectrum": true,
          "noise_diode_pattern": {"percentage":0.25, "period": 0.0125},
          "output_data_streams":
          {
              "polarization_0" :
              {
                  "format": "MPIFR_EDD_Packetizer:1",
                  "receiver_id": ""
              },
               "polarization_1" :
              {
                  "format": "MPIFR_EDD_Packetizer:1",
                  "receiver_id": ""
              }
          }
      },
    {
       "id": "gated_spectrometer_0",
        "input_data_streams":
        [
            {
                "source": "dig_pack_controller:polarization_0",
                "format": "MPIFR_EDD_Packetizer:1"
            }

        ],
        "output_data_streams":
        {
            "polarization_0_0":
            {
                "format": "GatedSpectrometer:1",
                "ip": "225.0.1.182",
                "port": "7152"
            },
            "polarization_0_1":
            {
                "format": "GatedSpectrometer:1",
                "ip": "225.0.1.183",
                "port": "7152"
            }
        },
        "naccumulate": 4096,
        "fft_length": 131072
      },
{
       "id": "gated_spectrometer_1",
        "input_data_streams":
        [
            {
                "source": "dig_pack_controller:polarization_1",
                "format": "MPIFR_EDD_Packetizer:1"
            }
        ],
        "output_data_streams":
        {
             "polarization_1_0":
            {
                "format": "GatedSpectrometer:1",
                "ip": "225.0.1.184",
                "port": "7152"
            },
             "polarization_1_1":
            {
                "format": "GatedSpectrometer:1",
                "ip": "225.0.1.185",
                "port": "7152"
            }
        },
        "naccumulate": 4096,
        "fft_length": 131072
      },

    {
       "id": "fits_interface",
        "input_data_streams":
        [
          {
            "source": "gated_spectrometer_0:polarization_0_0",
            "format": "GatedSpectrometer:1"
          },
          {
            "source": "gated_spectrometer_0:polarization_0_1",
            "format": "GatedSpectrometer:1"
          },
          {
            "source": "gated_spectrometer_1:polarization_1_0",
            "format": "GatedSpectrometer:1"
          },
          {
            "source": "gated_spectrometer_1:polarization_1_1",
            "format": "GatedSpectrometer:1"
          }
        ]
    }
    ]
}

